Swiss data
…
# mode of detection and endpoint
dat.woman %>% count(endpoint, detec)

# A tibble: 27 x 3
   endpoint detec     n
      <dbl> <dbl> <int>
 1        1     0    70
 2        1     1  1596
 3        1     2    49
 4        1     3    98
 5        1     4     2
 6        1     5   429
 7        2     0    65
 8        2     1    15
 9        2     2     3
10        2     3    56
# ... with 17 more rows
…
Clean data

d_join %>%
  select(
    row_id, nodoss, birthdate,
    examdt, nopartreas,
    concl,
    endpoint,
    endpointdt
    ) %>%
  mutate_at(vars(examdt, birthdate, endpointdt), na_if, "99999999") %>%
  mutate_at(vars(examdt, birthdate, endpointdt), dmy)

# A tibble: 541,096 x 8
   row_id     nodoss birthdate  examdt     nopartreas concl endpoint endpointdt
    <int>      <dbl> <date>     <date>          <dbl> <dbl>    <dbl> <date>    
 1      1 1003341631 1961-12-17 NA                  3     9        5 2018-10-10
 2      2 1003341631 1961-12-17 NA                  3     9        5 2018-10-10
 3      3 1003341631 1961-12-17 2014-12-01          9     1        5 2018-10-10
 4      4 1003341722 1961-11-08 2016-11-28          9     1        5 2018-10-05
 5      5 1003341722 1961-11-08 NA                  3     9        5 2018-10-05
 6      6 1003341722 1961-11-08 2014-11-18          9     2        5 2018-10-05
 7      7 1003341813 1964-12-19 2014-12-05          9     1        5 2018-10-05
 8      8 1003341813 1964-12-19 2016-11-25          9     1        5 2018-10-05
 9      9 1003341813 1964-12-19 2019-01-21          9     1        5 2018-10-05
10     10 1003341904 1964-10-04 2014-12-10          9     1        5 2018-11-09
# ... with 541,086 more rows
